[gd_scene load_steps=4 format=2]

[ext_resource path="res://scripts/geojson.gd" type="Script" id=1]
[ext_resource path="res://themes/ui.theme" type="Theme" id=2]

[sub_resource type="SpatialMaterial" id=1]
flags_unshaded = true

[node name="root" type="Spatial"]

[node name="geojson" type="Spatial" parent="."]
script = ExtResource( 1 )
dir = "res://../assets/untracked/godot_ready_json/"
_ui = NodePath("../ui/list")
mat = SubResource( 1 )

[node name="cam" type="Camera" parent="."]
transform = Transform( -3.48442e-08, -0.603792, 0.797142, -2.63926e-08, 0.797142, 0.603792, -1, 0, -4.37114e-08, -39.3511, 10.1134, 8.93981e-08 )
current = true
far = 20000.0

[node name="ui" type="Control" parent="."]
margin_right = 40.0
margin_bottom = 40.0
theme = ExtResource( 2 )
__meta__ = {
"_edit_use_anchors_": false
}

[node name="list" type="VBoxContainer" parent="ui"]
margin_left = 16.0
margin_top = 16.0
margin_right = 56.0
margin_bottom = 56.0
__meta__ = {
"_edit_use_anchors_": false
}
