[gd_scene load_steps=3 format=2]

[ext_resource path="res://materials/rock28/rock28.material" type="Material" id=1]

[sub_resource type="SphereMesh" id=1]

[node name="rock_ball" type="MeshInstance"]
material_override = ExtResource( 1 )
mesh = SubResource( 1 )
material/0 = null
